{
    "produits":
    [
        {
            "id":1,
            "title":"Gel moussant CERAVE peau grasse 450ml",
            "price":135.00,
            "type":"visage",
            "img":"https://www.cerave.fr/-/media/project/loreal/brand-sites/cerave/emea/fr/fr-all-product-details-latest/new-pdp-images/gel-moussant/700-x-875-px/gel-moussant-473ml---packshot-front.png?rev=5c07df7c409a4c738328f17adb843fbc?w=500&hash=E6AC4CE9AD7C075DA0ECB384827CB7EC"        },
        {
            "id":2,
            "title":"TOPIALYSE Gel Lavant 200ml",
            "price":160.00,
            "type":"visage",
            "img":"https://ma.svr.com/cdn/shop/products/topialyse-gel-lavant200ml-2021_1200x1200_crop_center.jpg?v=1642538399"
        },
        {
            "id":3,
            "title":"Effaclar gel moussant nettoyant peau grasse 400ml",
            "price":170.00,
            "type":"visage",
            "img":"https://www.laroche-posay.fr/dw/image/v2/AAQP_PRD/on/demandware.static/-/Sites-lrp-ng-master-catalog/fr_FR/dw367e0d2d/LRP_Product/Effaclar/3337872411991_Effaclar-Purifying-Cleansing-Gel_400ml_01_La-Roche-Posay.jpg?sw=698&sh=698&sm=cut&sfrm=jpg&q=70"
        },
        {
            "id":4,
            "title":"Huile Lavante Moussante Hydratante 450ml",
            "price":175.00,
            "type":"visage",
            "img":"https://www.cerave.fr/-/media/project/loreal/brand-sites/cerave/emea/fr/fr-all-product-details-latest/new-pdp-images/huile-lavante/700-x-875-px/huile-lavante-moussante-hydratante-473ml---packshot-front.png?rev=-1?w=500&hash=A9C324124D39608616B8863169CDC575"
        },
        {
            "id":5,
            "title":"Gel lavant déodorant fraîcheur intense 400ml",
            "price":145.00,
            "type":"visage",
            "img":"https://ma.svr.com/cdn/shop/products/spirial_deo-douche_2000x2000_400ml_1_1200x1200_crop_center.jpg?v=1680272475"
        },
        {
            "id":6,
            "title":"Effaclar mat 40ml",
            "price":140.00,
            "type":"visage",
            "img":"https://www.laroche-posay.fr/dw/image/v2/AAQP_PRD/on/demandware.static/-/Sites-lrp-ng-master-catalog/fr_FR/dw140000d7/LRP_Product/Effaclar/3337872413025_Effaclar-Mat_40ml_01_La-Roche-Posay.jpg?sw=593&sh=593&sm=cut&sfrm=jpg&q=70"
        },
        {
            "id":7,
            "title":"Ziaja Revitalisant capillaire lissant intensif 200ml",
            "price":135.00,
            "type":"cheveux",
            "img":"https://en.ziaja.com/media/cache/resolve/product_main/media/product/image/ZIAJA%2520EN_DE_ES/Silk%2520proteins/880x1280px_2.jpg"
        },
        {
            "id":8,
            "title":"Ziaja Shampoo regenerateur 400ml",
            "price":175.00,
            "type":"cheveux",
            "img":"https://en.ziaja.com/media/cache/resolve/product_main/media/product/image/ZIAJA%2520EN_DE_ES/Silk%2520proteins/880x1280px_2.jpg"
        },
        {
            "id":9,
            "title":"Ziaja masque cheveux à la keratine 200ml",
            "price":165.00,
            "type":"cheveux",
            "img":"https://en.ziaja.com/media/cache/resolve/product_main/media/product/image/ZIAJA%2520EN_DE_ES/Goats%2520milk/880x1280px-14.jpg"
        },
        {
            "id":10,
            "title":"Ziaja conditionner cheuveux caffeine 100ml",
            "price":115.00,
            "type":"cheveux",
            "img":"https://en.ziaja.com/media/cache/resolve/product_main/media/product/image/ZIAJA%2520EN_DE_ES/Pineapple/880x1280px-06.jpg"
        },
        {
            "id":11,
            "title":"Elseve Huile Extraordinaire Plus Qu'un Shampoing 200ml",
            "price":95.00,
            "type":"cheveux",
            "img":"https://www.loreal-paris.fr/dw/image/v2/BHHX_PRD/on/demandware.static/-/Sites-lorealparis-fr-catalog/default/dwfd51651d/huile-extra/3600523970209/PQUS%20-%203600523970209%20-%20FRONT.jpg?sw=563&sh=563&sm=cut&sfrm=png&q=70"
        },
        {
            "id":12,
            "title":"Shampooing Démêlant Lait de Vanille & Pulpe de Papaye 250ml",
            "price":80.00,
            "type":"cheveux",
            "img":"https://www.garnier.fr/-/media/project/loreal/brand-sites/garnier/emea/fr/fr-fr/prd-haircare/shampooing-11152022/vanille_sh_250ml.png?w=500&rev=8d117d3e185e46adbe000adb567487c9&hash=7236CF866481A9F14CFD540298C49A1E"
        },
        {
            "id":13,
            "title":"Lotion Vaseline Intensive Care Cocoa Radiant 600ml",
            "price":125.00,
            "type":"corps",
            "img":"https://www.vaseline.com/sk-eu/content/dam/brands/vaseline/canada/1381370-vaseline-intensive-care-cocoa-radiant-lotion-600ml.png.rendition.767.767.png"
        },
        
        {
            "id":14,
            "title":"Crème douche coco",
            "price":85.00,
            "type":"corps",
            "img":"https://mbf10-live-ushuaia-fra.e-loreal.com/-/jssmedia/jss-ushuaia/data/media/img/images-01-12/DOUCHE-COCO-300ml-front.ashx?h=1000&iar=0&w=1000"
        },
        {
            "id":15,
            "title":"Crème à mains Vaseline Clinical Car Rough Hands Rescue",
            "price":100.00,
            "type":"corps",
            "img":"https://www.vaseline.com/sk-eu/content/dam/brands/vaseline/united_states_ofamericacanada/37070396-305210043589-01.png.rendition.767.767.png"
        }
    
    ]
}